"_id","nlc","stc","line1","line2","line3","line4","line5","lat","lng"
"Amersham"," 506"," AME"," M"," *"," *"," *"," *"," 51.67414971"," -0.607478839"
"Chalfont & Latimer"," 539"," CLF"," M"," *"," *"," *"," *"," 51.66802547"," -0.560534956"
"Chesham"," 543"," *"," *"," *"," *"," *"," *"," 51.70503045"," -0.611219246"
"Chorleywood"," 546"," CWD"," M"," *"," *"," *"," *"," 51.65421786"," -0.51836599"
"Croxley"," 554"," CRX"," M"," *"," *"," *"," *"," 51.64704634"," -0.441710993"
"Hillingdon"," 606"," HDN"," M"," P"," *"," *"," *"," 51.55371684"," -0.449926296"
"Ickenham"," 615"," ICK"," M"," P"," *"," *"," *"," 51.56198474"," -0.442026556"
"Moor Park"," 646"," MPK"," M"," *"," *"," *"," *"," 51.62973109"," -0.432666849"
"Northwood"," 661"," NWD"," M"," *"," *"," *"," *"," 51.61115923"," -0.423860794"
"Northwood Hills"," 662"," MWH"," M"," *"," *"," *"," *"," 51.60049458"," -0.409298631"
"Rickmansworth"," 687"," RKY"," M"," *"," *"," *"," *"," 51.64027271"," -0.473712107"
"Ruislip"," 691"," RUI"," M"," P"," *"," *"," *"," 51.57144911"," -0.421455074"
"Ruislip Gardens"," 692"," RUG"," C"," *"," *"," *"," *"," 51.5605885"," -0.411039285"
"Ruislip Manor"," 693"," RUM"," M"," P"," *"," *"," *"," 51.57318768"," -0.412345792"
"Uxbridge"," 740"," UXB"," M"," P"," *"," *"," *"," 51.54649637"," -0.478139472"
"Watford"," 748"," WAT"," M"," *"," *"," *"," *"," 51.65742097"," -0.417280632"
"West Ruislip"," 762"," WRP"," C"," *"," *"," *"," *"," 51.56952886"," -0.437886437"
